^C:\TEMP\INFOGRAPHIEAVANCEE\TP2\CST.CPP|C:\TEMP\INFOGRAPHIEAVANCEE\TP2\GAZON.CPP|C:\TEMP\INFOGRAPHIEAVANCEE\TP2\GRILLEQUADS.CPP|C:\TEMP\INFOGRAPHIEAVANCEE\TP2\LUMIERE.CPP|C:\TEMP\INFOGRAPHIEAVANCEE\TP2\MAIN.CPP|C:\TEMP\INFOGRAPHIEAVANCEE\TP2\MATERIAU.CPP|C:\TEMP\INFOGRAPHIEAVANCEE\TP2\MODELE3DABSTRAIT.CPP|C:\TEMP\INFOGRAPHIEAVANCEE\TP2\MODELE3DOBJ.CPP|C:\TEMP\INFOGRAPHIEAVANCEE\TP2\NOISE.CPP|C:\TEMP\INFOGRAPHIEAVANCEE\TP2\NUANCEURPROG.CPP|C:\TEMP\INFOGRAPHIEAVANCEE\TP2\SKYBOX.CPP|C:\TEMP\INFOGRAPHIEAVANCEE\TP2\SURFACEBSPLINAIRE.CPP|C:\TEMP\INFOGRAPHIEAVANCEE\TP2\TEXTFILE.CPP|C:\TEMP\INFOGRAPHIEAVANCEE\TP2\TEXTURE2D.CPP|C:\TEMP\INFOGRAPHIEAVANCEE\TP2\TEXTUREABSTRAITE.CPP|C:\TEMP\INFOGRAPHIEAVANCEE\TP2\TEXTURECUBEMAP.CPP|C:\TEMP\INFOGRAPHIEAVANCEE\TP2\VAR.CPP
C:\TEMP\INFOGRAPHIEAVANCEE\TP2\DEBUG\VC140.PDB
C:\TEMP\INFOGRAPHIEAVANCEE\TP2\DEBUG\VC140.IDB
C:\TEMP\INFOGRAPHIEAVANCEE\TP2\DEBUG\CST.OBJ
C:\TEMP\INFOGRAPHIEAVANCEE\TP2\DEBUG\GAZON.OBJ
C:\TEMP\INFOGRAPHIEAVANCEE\TP2\DEBUG\GRILLEQUADS.OBJ
C:\TEMP\INFOGRAPHIEAVANCEE\TP2\DEBUG\LUMIERE.OBJ
C:\TEMP\INFOGRAPHIEAVANCEE\TP2\DEBUG\MAIN.OBJ
C:\TEMP\INFOGRAPHIEAVANCEE\TP2\DEBUG\MATERIAU.OBJ
C:\TEMP\INFOGRAPHIEAVANCEE\TP2\DEBUG\MODELE3DABSTRAIT.OBJ
C:\TEMP\INFOGRAPHIEAVANCEE\TP2\DEBUG\MODELE3DOBJ.OBJ
C:\TEMP\INFOGRAPHIEAVANCEE\TP2\DEBUG\NUANCEURPROG.OBJ
C:\TEMP\INFOGRAPHIEAVANCEE\TP2\DEBUG\SKYBOX.OBJ
C:\TEMP\INFOGRAPHIEAVANCEE\TP2\DEBUG\SURFACEBSPLINAIRE.OBJ
C:\TEMP\INFOGRAPHIEAVANCEE\TP2\DEBUG\TEXTURE2D.OBJ
C:\TEMP\INFOGRAPHIEAVANCEE\TP2\DEBUG\TEXTUREABSTRAITE.OBJ
C:\TEMP\INFOGRAPHIEAVANCEE\TP2\DEBUG\TEXTURECUBEMAP.OBJ
C:\TEMP\INFOGRAPHIEAVANCEE\TP2\DEBUG\VAR.OBJ
C:\TEMP\INFOGRAPHIEAVANCEE\TP2\DEBUG\NOISE.OBJ
C:\TEMP\INFOGRAPHIEAVANCEE\TP2\DEBUG\TEXTFILE.OBJ
^C:\TEMP\INFOGRAPHIEAVANCEE\TP2\CST.CPP
C:\TEMP\INFOGRAPHIEAVANCEE\TP2\DEBUG\VC140.PDB
^C:\TEMP\INFOGRAPHIEAVANCEE\TP2\GAZON.CPP
C:\TEMP\INFOGRAPHIEAVANCEE\TP2\DEBUG\VC140.PDB
^C:\TEMP\INFOGRAPHIEAVANCEE\TP2\GRILLEQUADS.CPP
C:\TEMP\INFOGRAPHIEAVANCEE\TP2\DEBUG\VC140.PDB
^C:\TEMP\INFOGRAPHIEAVANCEE\TP2\LUMIERE.CPP
C:\TEMP\INFOGRAPHIEAVANCEE\TP2\DEBUG\VC140.PDB
^C:\TEMP\INFOGRAPHIEAVANCEE\TP2\MAIN.CPP
C:\TEMP\INFOGRAPHIEAVANCEE\TP2\DEBUG\VC140.PDB
C:\TEMP\INFOGRAPHIEAVANCEE\TP2\DEBUG\VC140.IDB
C:\TEMP\INFOGRAPHIEAVANCEE\TP2\DEBUG\MAIN.OBJ
^C:\TEMP\INFOGRAPHIEAVANCEE\TP2\MATERIAU.CPP
C:\TEMP\INFOGRAPHIEAVANCEE\TP2\DEBUG\VC140.PDB
^C:\TEMP\INFOGRAPHIEAVANCEE\TP2\MODELE3DABSTRAIT.CPP
C:\TEMP\INFOGRAPHIEAVANCEE\TP2\DEBUG\VC140.PDB
^C:\TEMP\INFOGRAPHIEAVANCEE\TP2\MODELE3DOBJ.CPP
C:\TEMP\INFOGRAPHIEAVANCEE\TP2\DEBUG\VC140.PDB
^C:\TEMP\INFOGRAPHIEAVANCEE\TP2\NUANCEURPROG.CPP
C:\TEMP\INFOGRAPHIEAVANCEE\TP2\DEBUG\VC140.PDB
^C:\TEMP\INFOGRAPHIEAVANCEE\TP2\SKYBOX.CPP
C:\TEMP\INFOGRAPHIEAVANCEE\TP2\DEBUG\VC140.PDB
^C:\TEMP\INFOGRAPHIEAVANCEE\TP2\SURFACEBSPLINAIRE.CPP
C:\TEMP\INFOGRAPHIEAVANCEE\TP2\DEBUG\VC140.PDB
^C:\TEMP\INFOGRAPHIEAVANCEE\TP2\TEXTURE2D.CPP
C:\TEMP\INFOGRAPHIEAVANCEE\TP2\DEBUG\VC140.PDB
^C:\TEMP\INFOGRAPHIEAVANCEE\TP2\TEXTUREABSTRAITE.CPP
C:\TEMP\INFOGRAPHIEAVANCEE\TP2\DEBUG\VC140.PDB
^C:\TEMP\INFOGRAPHIEAVANCEE\TP2\TEXTURECUBEMAP.CPP
C:\TEMP\INFOGRAPHIEAVANCEE\TP2\DEBUG\VC140.PDB
^C:\TEMP\INFOGRAPHIEAVANCEE\TP2\VAR.CPP
C:\TEMP\INFOGRAPHIEAVANCEE\TP2\DEBUG\VC140.PDB
^C:\TEMP\INFOGRAPHIEAVANCEE\TP2\NOISE.CPP
C:\TEMP\INFOGRAPHIEAVANCEE\TP2\DEBUG\VC140.PDB
^C:\TEMP\INFOGRAPHIEAVANCEE\TP2\TEXTFILE.CPP
C:\TEMP\INFOGRAPHIEAVANCEE\TP2\DEBUG\VC140.PDB
